{
	"108.0.5359.125":
	{
		"cef":"https://bitbucket.org/chromiumembedded/cef/get/5359.tar.bz2",
		"chromium":"https://storage.googleapis.com/chromium-browser-official/chromium-108.0.5359.125.tar.xz",
		"python":"https://www.python.org/ftp/python/3.11.1/python-3.11.1-embed-amd64.zip",
		"depot_tools":"https://storage.googleapis.com/chrome-infra/depot_tools.zip"
	}
}